1;25.08.2011;Колетвинова Юлия Андреевна;ж;ИГУиП;3;8-906-539-51-42;Пр.-1;не пришла;льготный соц.-эк. Статус;бюджет;очная;Тульская обл., с. Овсянниково;;2011;4;2015;;
2;26.09.2012;Кузьмина Диана Леонидовна;ж;ИИСУ;4;8-905-544-65-04;Пр.-1;не пришла;потеря кормильца;бюджет;очная;г.Фрязино;;2010;5;2015;;
3;10.01.2013;Юсупова Анастасия Салаватовна;ж;ИМ;4;8-925-275-64-45;Пр.-1;отказ;;бюджет;очная;р. Дагестан, г. Махачкала;;2010;5;2015;;
4;13.09.2013;Хуснетдинов Камил Искндерович;м;ИУПЭС;2;89254162425;Пр.-1;отказ;;бюджет;очная;г. Чебоксары ;;2012;4;2016;;
5;27.08.2013;Журавлева Ирина Андреевна;ж;ИУПСС;2;8-962-978-05-48;Пр.-1;не пришла;;бюджет;очная;МО, Воскресенский р-н, с. Конобеево;;2012;4;2016;;
6;30.08.2013;Мамлеева Алия Дамировна;ж;ИУТИТиМБ;1;8-927-570-02-24;Пр.-1;не пришла;;бюджет;очная;г. Астрахань;;2013;4;2017;;
7;23.10.2013;Голубцова Виктория Вячеславовна;ж;;;9-929-924-35-80;Пр.-2;не пришла;;;;;;2013;2;2015;;
8;29.08.2012;Адучиева Альмана Эрдниевна;ж;ИУФиНА;2;8-909-397-77-71;Пр.-3;не пришёл;малоимущая, ходатайство;бюджет;очная;г.Элиста;;2012;4;2016;;
9;25.08.2011;Алябышева Дарья Юрьевна;ж;ИУПСС;3;8-926-135-27-10;Пр.-3;не пришёл;;бюджет;очная;Моск.обл., г.Можайск;;2011;4;2015;;
10;25.08.2011;Антонова Анна Евгеньевна;ж;ИУФиНА;3;8-965-151-62-00;Пр.-3;не пришёл;;бюджет;очная;г. Железногорск, Красноярского края;;2011;4;2015;;
11;26.08.2010;Антощенкова Регина Юрьевна;ж;ИУФиНА;4;;Пр.-3;не пришёл;МосГУ;бюджет;очная;Московская обл, Электросталь г;;2010;5;2015;;
12;02.09.2011;Аракелян Гайк Саргисович;м;ИУПЭС;4;8-962-922-91-65;Пр.-3;не пришёл;;бюджет;очная;МО, с.Вороново;;2010;5;2015;;
13;29.08.2011;Бабанова Дарья Павловна;ж;ИУТИТиМБ;3;8-905-066-38-86;Пр.-3;не пришёл;;бюджет;очная;г.Новокузнецк, Кемеровская обл.;;2011;4;2015;;
14;04.09.2012;Барбалат Василий Алексеевич;м;ИУФиНА;2;8-915-250-97-37;Пр.-3;не пришёл;;бюджет;очная;г.Ногинск;;2012;4;2016;;
15;29.08.2011;Васильева Марина Олеговна;ж;ИГУиП;3;8-916-843-91-10;Пр.-3;не пришёл;развод;бюджет;очная;Чувашская республика, г.Шумерля;;2011;4;2015;;
16;29.08.2012;Величко Ольга Владиславовна;ж;ИУПЭС;2;8-903-364-85-04;Пр.-3;не пришёл;;бюджет;очная;г.Новотроицк Оренбургская область;;2012;4;2016;;
17;12.04.2010;Волкова Алеся Владимировна;ж;ИУТИТиМБ;5;;Пр.-3;не пришёл;;бюджет;очная;МО г. Солнечногорск;;2009;5;2014;;
18;31.08.2012;Глушкова Ольга Николаевна;ж;ИУТИТиМБ;2;8-919-515-10-13;Пр.-3;не пришёл;папа инвалид, развод;бюджет;очная;г.Омутнинск;;2012;4;2016;;
19;17.04.2012;Горячева Мария Владимировна;ж;ИУПЭС;4;8-916-467-24-41;Пр.-3;не пришёл;развод;бюджет;очная;МО, г. Электросталь;;2010;5;2015;;
20;09.09.2010;Грачев Артем Гегорьевич;м;ИУПЭС;4;;Пр.-3;не пришёл;;бюджет;очная;М.О.г. Одинцово;;2010;5;2015;;
21;23.09.2011;Грачева Гульнара Алексеева;ж;ИИСУ;3;8-962-990-73-56;Пр.-3;не пришёл;;бюджет;очная;рес.Мордовия. Село Рат-Юнки;;2011;4;2015;;
22;25.08.2011;Грозова Маргарита Сергеевна;ж;ИИСУ;3;8-916-788-74-00;Пр.-3;не пришёл;;бюджет;очная;Моск. Обл., г.Чехов;;2011;4;2015;;
23;31.08.2012;Девянина Алена Валерьевна;ж;ИИУЭ;2;8-909-274-34-35;Пр.-3;не пришёл;;бюджет;очная;г.Муром;;2012;4;2016;;
24;05.09.2012;Дмитриева Елена Алексеевна;ж;ИУТИТиМБ;2;8-916-421-70-01;Пр.-3;не пришёл;;бюджет;очная;г.Цивильск;;2012;4;2016;;
25;29.08.2012;Долговая Анна Григорьевна;ж;ИУТИТиМБ;2;8-968-462-72-40;Пр.-3;не пришёл;;бюджет;очная;г.Набережные Челны;;2012;4;2016;;
26;08.04.2011;Дьяченко Виктория Юрьевна;ж;ИИУЭ;4;8-926-816-97-36;Пр.-3;не пришёл;;бюджет;очная;М.О. г. Подольск;;2010;5;2015;;
27;16.11.2009;Жукова Ольга Сергеевна ;ж;ИУПЭС;5;;Пр.-3;не пришёл;;бюджет;очная ;МО, г. Фрязино;08.06.10 повтор;2009;5;2014;;
28;02.09.2011;Зинович Анастасия Николаевна;ж;ИМ;3;8-916-251-34-74;Пр.-3;не пришёл;;бюджет;очная;г.Серпухов;;2011;4;2015;;
29;26.11.2012;Иванова Кристина Эдуардовна;ж;ИМ ;2;8-903-116-08-67;Пр.-3;не пришёл;;бюджет;очная;Чувашская респ., г Чебоксары;;2012;4;2016;;
30;25.08.2011;Кан Виктория Валерьевна;ж;ИУФиНА;3;8-916-550-96-68;Пр.-3;не пришёл;;бюджет;очная;д Новошихово, МО;;2011;4;2015;;
31;29.08.2012;Харачевнева Инна Сергеевна;ж;ИУПСС;2;8-980-321-20-10;Пр.-3;не пришёл;;бюджет;очная;Белгородская обл., г. Губкин;;2012;4;2016;;
32;29.08.2012;Клюева Ольга Олеговна;ж;ИИУЭ;2;8-906-729-14-74;Пр.-3;не пришёл;;бюджет;очная;г.Коломна-1 МО;;2012;4;2016;;
33;14.09.2010;Комарова Юлия Евгеньевана;ж;ИУФиНА;5;;Пр.-3;не пришёл;;бюджет;очная;МО, Рузский р-н, п.Тучково;;2009;5;2014;;
34;30.08.2012;Коркина Анна Алексеевна;ж;ИУПСС;2;8-965-102-58-21;Пр.-3;не пришёл;;бюджет;очная;г.Чехов;;2012;4;2016;;
35;07.09.2012;Крикуненко Дарья Михайловна;ж;ИУПЭС;3;8-905-548-05-58;Пр.-3;не пришёл;;бюджет;очная;г.Нижний Новгород;;2011;4;2015;;
36;19.09.2011;Крикунова Ксения Андреевна;ж;ИУПЭС;3;8-985-162-05-25;Пр.-3;не пришёл;;бюджет;очная;г. Ставрополь;;2011;4;2015;;
37;01.09.2011;Листикова Валерия Александровна;ж;ИИУЭ;3;8-903-786-59-83;Пр.-3;не пришёл;;бюджет;очная;МО, Серпуховский р-н, д.Дракино;;2011;4;2015;;
38;19.09.2011;Лях Олеся Михайловна;ж;ИИУЭ;4;8-915-216-37-30;Пр.-3;не пришёл;;бюджет;очная;МО, г. Дедовск;;2010;5;2015;;
39;01.09.2011;Макаров Денис Владимирович;м;ИИУЭ;5;8-985-230-89-15;Пр.-3;не пришёл;;бюджет;очная;МО, г.Бронницы;;2009;5;2014;;
40;03.09.2011;Матюшина Татьяна Александровна;ж;ИГУиП;3;8-964-711-09-32;Пр.-3;не пришёл;;бюджет;очная;Республик Коми, г.Ухта;;2011;4;2015;;
41;05.09.2012;Медведева Елена Михайловна;ж;ИУПЭС;2;8-963-781-45-88;Пр.-3;не пришёл;;договор;очная;г.Тамбов;;2012;4;2016;;
42;25.08.2011;Мирошкина Екатерина Сергеевна;ж;ИУФиНА;3;8-985-777-88-53;Пр.-3;не пришёл;;бюджет;очная;Моск.обл., г.Ступино;;2011;4;2015;;
43;29.08.2011;Нальгиева Елизавета Салаудиновна;ж;ИУТИТиМБ;3;8-926-101-84-52;Пр.-3;не пришёл;;бюджет;очная;республика Ингушетия, с.Сурхахи;;2011;4;2015;;
44;13.09.2011;Никонова Анастасия Владимировна;ж;ИУПСС;5;8-903-734-15-39;Пр.-3;не пришёл;;бюджет;очная;МО, г. Мытищи;;2009;5;2014;;
45;30.08.2012;Палашно Юлия Владиславовна;ж;ИУПЭС;2;8-915-250-27-99;Пр.-3;не пришёл;;бюджет;очная;г.Краснознаменск;;2012;4;2016;;
46;27.08.2011;Писарева Лилия Викторовна;ж;ИУФиНА;3;8-906-073-80-47;Пр.-3;не пришёл;;бюджет;очная;г. Нововоронеж, Воронежской обл;;2011;4;2015;;
47;02.09.2011;Позднякова Виктория Андреевна;ж;ИМ;3;8-916-055-69-78;Пр.-3;не пришёл;;бюджет;очная;Липецкая обл.г.Лебедян;;2011;4;2015;;
48;01.09.2011;Полева Кристина Владимирована;ж;ИУФиНА;3;8-472-525-84-47;Пр.-3;не пришёл;;бюджет;очная;Булгородская обл.г.Ст Оскол;;2011;4;2015;;
49;29.08.2012;Попкова Яна Андреевна;ж;ИИУЭ;2;8-919-778-28-91;Пр.-3;не пришёл;;бюджет;очная;ХМАО - Югра АО, пгт.Цлугинск;;2012;4;2016;;
50;15.11.2012;Поповчак Юрий Васильевич;м;ИУПИэС;2;8-903-714-61-42;Пр.-3;не пришёл;;бюджет;очная;г. Волгоград;;2012;4;2016;;
51;17.09.2012;Приходько Валерия Викторовна;ж;ИИУЭ;2;8-910-481-38-81;Пр.-3;не пришёл;;бюджет;очная;г.Таганрог;;2012;4;2016;;
52;29.08.2012;Прохорова Дарья Юоьевна;ж;ИИУЭ;2;8-926-782-02-95;Пр.-3;не пришёл;;бюджет;очная;р.п.Шаховская МО;;2012;4;2016;;
53;25.08.2011;Прехина Анастасия Павловна;ж;ИУПЭС;3;8-909-165-37-80;Пр.-3;не пришёл;;бюджет;очная;г.Электросталь, МО;;2011;4;2015;;
54;12.09.2012;Пушкина Надежда Александровна;ж;ИУПЭС;3;8-985-455-46-55;Пр.-3;не пришёл;;бюджет;очная;пос.Заокский;;2011;4;2015;;
55;20.02.2012;Радько Светлана Сергеевна;ж;ИУФиНА;3;8-909-673-40-77;Пр.-3;не пришёл;;бюджет;очная;М.О. Клинский р-он г.Высоковский;;2011;4;2015;;
56;01.09.2011;Расновская Анна Андреевна;ж;ИИСУ;3;8-910-331-65-99;Пр.-3;не пришёл;;бюджет;очная;Брянская обл.с Городец;;2011;4;2015;;
57;26.03.2012;Самокатов Ян  Александрович;ж;ИМ;3;8-915-317-67-01;Пр.-3;не пришёл;;бюджет;очная;Тула;;2011;4;2015;;
58;06.09.2012;Семенюк Екатерина Николаевна;ж;ИМ;2;8-915-279-94-88;Пр.-3;не пришёл;;бюджет;очная;г.Пущино;;2012;4;2016;;
59;29.08.2012;Сердюкова Алина Андреевна;ж;ИМ;2;8-926-165-61-09;Пр.-3;не пришёл;;бюджет;очная;Ставропольский край, г. Новоалександровка;;2012;4;2016;;
60;31.08.2011;Синицина Светлана Александровна;ж;ИУТИТиМБ;3;8-915-537-97-43;Пр.-3;не пришёл;;бюджет;очная;г.Брянск;;2011;4;2015;;
61;30.08.2012;Скопецкая Галина Дмитриевна;ж;ИИСУ;4;8-963-977-21-29;Пр.-3;не пришёл;;бюджет;очная;дер.Медвежьи Озера;;2010;5;2015;;
62;31.08.2011;Скрябина Анна Владимировна;ж;ИИСУ;3;8-962-205-71-87;Пр.-3;не пришёл;;бюджет;очная;Ярославская обл, г.Рыбинск;;2011;4;2015;;
63;30.08.2012;Сломова Алена Евгеньевна;ж;ИУТИТиМБ;2;8-926-248-90-30;Пр.-3;не пришёл;;бюджет;очная;г.Ейск;;2012;4;2016;;
64;13.09.2011;Согласнова Анастасия Сергеевна;ж;ИИСУ;3;8-916-288-25-42;Пр.-3;не пришёл;;бюджет;очная;МО, г.Ликино-Дулево;;2011;4;2015;;
65;28.02.2011;Сухарукова Анна Алексеевна ;ж;ИУТИТиМБ;4;;Пр.-3;не пришёл;;бюджет;очная;М.О. г. Лобня;;2010;5;2015;;
66;25.08.2011;Тарбеева Ксения Романовна;ж;ИУФиНА;3;8-910-092-29-56;Пр.-3;не пришёл;;бюджет;очная;г.Владимир;;2011;4;2015;;
67;02.09.2011;Трифонова Алина Владимировна;ж;ИИСУ;4;8-925-591-43-86;Пр.-3;не пришёл;;бюджет;очная;МО, г.Павловский Посад;;2010;5;2015;;
68;03.09.2012;Тулякова Валерия Евгеньевна;ж;ИИСУ;2;8-965-398-19-89;Пр.-3;не пришёл;;бюджет;очная;МО,п.Медное-Влясово;;2012;4;2016;;
69;02.09.2011;Ульяницкая Александра Сергеевна;ж;ИУТИТиМБ;3;8-985-247-70-49;Пр.-3;не пришёл;;бюджет;очная;г.Киров;;2011;4;2015;;
70;29.08.2012;Федорова Виктория Викторовна;ж;ИУПСС;2;8-905-416-59-49;Пр.-3;не пришёл;развод;бюджет;очная;г.Ставрополь;;2012;4;2016;;
71;24.05.2012;Федорчук Татьяна Сергеевна;ж;ИПиСУ;6;8-910-441-58-81;Пр.-3;не пришёл;;бюджет;очная;МО, г. Ногинск;;2008;5;2013;;
72;25.08.2011;Федюшкина Екатерина Сергеевна;ж;ИУПЭС;3;8-916-905-63-09;Пр.-3;не пришёл;;бюджет;очная;Моск.обл., г.Егорьевск;;2011;4;2015;;
73;03.09.2012;Фирсова Кристина Евгеньевна;ж;ИУФиНА;2;8-915-997-62-69;Пр.-3;не пришёл;;бюджет;очная;г.Переславль-Залесский;;2012;4;2016;;
74;29.08.2012;Цомартова Лана Муратовна;ж;ИГУиП;2;8-918-826-95-82;Пр.-3;не пришёл;;бюджет;очная;г. Владикавказ;;2012;4;2016;;
75;30.08.2011;Черенкова Елена Алексеевна;ж;ИМ;3;8-915-390-36-40;Пр.-3;не пришёл;;бюджет;очная;МО, г.Коломна;;2011;4;2015;;
76;31.08.2012;Четырина Ксения Сергеевна;ж;ИИУЭ;2;8-915-677-53-13;Пр.-3;не пришёл;;бюджет;очная;г.Тамбов;;2012;4;2016;;
77;04.09.2012;Шилова Анастасия Андреевна;ж;ИУТИТиМБ;3;8-926-345-65-26;Пр.-3;не пришёл;;бюджет;очная;МО,г.Юбилейный повтор 16.05.13;;2011;4;2015;;
78;31.08.2012;Шишкина Анастасия Владимировна;ж;ИУТИТиМБ;2;8-915-555-63-49;Пр.-3;не пришёл;;бюджет;очная;г.Липецк;;2012;4;2016;;
79;03.09.2012;Шоголова Даяна Владимировна;ж;ИГУиП;3;8-961-54-66-119;Пр.-3;не пришёл;развод;бюджет;очная;г.Элиста;;2011;4;2015;;
80;03.09.2012;Щугорева Ирина Александровна;ж;ИИСУ;2;8-926-649-61-63;Пр.-3;не пришёл;;бюджет;очная;г.Электросталь, МО;;2012;4;2016;;
81;29.08.2011;Ярмолюк Инна Андреевна;ж;ИИУЭ;3;8-926-787-82-21;Пр.-3;не пришёл;;бюджет;очная;МО, г.Домодедово;;2011;4;2015;;
82;03.09.2012;Нагунов Николай Юрьевич;м;ИУФиНА;2;8-967-025-82-71;Пр.-3;не пришёл;;бюджет;очная;р. Калмыкия, с. Омкуль ;;2012;4;2016;;
83;25.08.2010;Пономарёва Ольга Михайловна;ж;ИУПЭС;4;8-965-349-62-42;Пр.-3;не пришёл;;бюджет;очная;МО, Черноголовка г;повтор 05.09.2012;2010;5;2015;;
84;17.10.2012;Глазнова Валерия Сергеевна;ж;ИУПЭС;3;8-885-300-91-74;Пр.-3;не пришёл;;бюджет;очная;Тамбовская обл., Первомайский р-н;;2011;4;2015;;
85;27.02.2013;Дозорова Надежда Геннадьевна;ж;ИГУиП;2;8-910-488-79-65;Пр.-3;не пришёл;;бюджет;очная;р. Чувашия, г. Новочебоксарск;;2012;4;2016;;
86;21.05.2013;Конышева Ксения Александровна;ж;ИУПЭС;5;8-916-835-62-49;Пр.-3;не пришёл;;бюджет;очная;г. Ижевск;;2009;5;2014;;
87;11.07.2013;Емцова Наталья Петровна;ж;ИМ;2;8-909-967-28-96;Пр.-3;не пришёл;;бюджет;очная;МО, г. Ступино;;;;;;
88;29.08.2011;Терёхина Мария Алексеевна;ж;ИУПЭС;1;;Пр.-3;не пришёл;;бюджет;очная;Рязанская обл., р.п.Кадом;;;;;;
89;14.10.2010;Ефимова Светлана Сергеевна;ж;ИИСУ;5;;Пр.-3;не пришёл;;бюджет;очная;МО Чеховский р-он д. Скрыгино;;;;;;
90;25.08.2011;Котова Полина Владиславовна;ж;ИИУЭ;5;;Пр.-3;не пришёл;;бюджет;очная;Мо. Пос Кратово;;2008;5;2013;;
91;15.09.2011;Сычёва Алёна Владимировна;ж;ИУФиНА;3;8-909-165-25-88;Пр.-3;не пришёл;;бюджет;очная;МО г. Сергиев Посад;;2011;5;2016;;
92;26.08.2013;Нурбекьян Диана Норьевна;ж;ИМ;1;8-928-811-30-09;Пр.-3;не пришёл;;бюджет;очная;Ставропольский край, г. Георгиевск;;2013;4;2017;;
93;26.08.2013;Ласточкина Екатерина Юрьевна;ж;ИУТИТиМБ;1;8-968-896-17-20;Пр.-3;не пришёл;развод;договор;очная;г. Чебоксары;;2013;4;2017;;
94;27.08.2013;Кудинов Станислав Сергеевич;м;ИИУЭ;1;8-919-013-11-65;Пр.-3;не пришёл;развод, малоимущая, мама инвалид 3 гр;договор;очная;Владимирская обл., г. Кольчугино;;2013;4;2017;;
95;29.08.2013;Горбенко Всеволод Ростиславович;м;ИИУЭ;1;8-904-003-85-99;Пр.-3;не пришёл;;бюджет;очная;Казахстан, г. Акмола;;2013;4;2017;;
96;02.09.2013;Текушева Заират Аслановна;ж;ИУПСС;1;8-9926-845-19-69;Пр.-3;не пришёл;;бюджет;очная;г. Нальчик;;2013;4;2017;;
97;03.09.2013;Багаутдинова Виктория Олеговна;ж;ИУПЭиС;1;8-968-837-50-11;Пр.-3;не пришёл;;бюджет;очная;г. Норильск;;2013;4;2017;;
98;09.09.2013;Балабуркина Виктория Валерьевна;ж;ИИУЭ;1;89853520663;Пр.-3;не пришёл;;бюджет;очная;г. Норильск;;2013;4;2017;;
99;27.08.2013;Дарбалова Ирина Владимировна;ж;ИУПЭиС;1;8-961-542-10-12;;не прилша;;бюджет;очно-заочная;респ. Калмыкия, г. Элиста;;2013;4;2017;;
100;03.09.2012;Абазова Камилла Аслановна;ж;ИУТИТиМБ;2;8-926-041-29-59;Пр-5;не пришёл;;бюджет;очная;г.Нальчик;;2012;4;2016;есть;
101;29.08.2012;Даллакян Сирануш Хачатуровна;ж;ИИУЭ;2;8-988-738-80-97;Пр-5;не пришёл;;бюджет;очная;г. Новоалександровск Ставропольский край;;2012;4;2016;есть;
102;01.09.2011;Игнатьева Анна Алексеевна;ж;ИИУЭ;3;;Пр-5;не пришёл;;договор;очная;МО.г.Чехов;;2011;4;2015;есть;
103;29.08.2011;Мясищева Анастасия Евгеньевна;ж;ИУФиНА;3;8-964-787-95-66;Пр-5;не пришёл;;договор;очная;г.Ярославль;;2011;4;2015;есть;
104;31.08.2012;Непеева Джамиля Борисовна;ж;ИУПСС;2;8-926-349-52-02;Пр-5;не пришёл;;бюджет;очная;п.Эльбрус;;2012;4;2016;есть;
105;29.08.2011;Шавидзе Крестина Таймуразовна;ж;ИПиСУ;4;8-916-799-41-79;Пр-5;не пришёл;;договор;очная;г.Киров;;2010;5;2015;есть;
106;25.08.2011;Зверева Ксения Александровна;ж;ИИСУ;3;8-926-555-21-73;Пр-5;не пришёл;;договор;очная;г. Серпухов, МО;;;;0;есть;
107;17.04.2013;Рамазанова Сабина Магомедовна;ж;ИУФиНА;3;8-985-319-69-61;Пр-5;не пришёл;;бюджет;очная;р. Дагестан, г. Махачкала;;2011;4;2015;есть;
108;26.08.2013;Колчина Анастасия Олеговна;ж;ИУПЭиС;1;8-920-631-06-17;Пр-5;не пришёл;;бюджет;очная;Рязанская обл., г. Касимов;;2013;4;2017;112;
109;26.08.2013;Квасова Валентина Викторовна;ж;ИУТИТиМБ;5;8-915-098-29-44;Пр-5;не пришёл;;бюджет;очная;Липецкая обл., г. Чаплыгин;;2009;;;136;
110;26.08.2013;Евсеева Анастасия Дмитриевна;ж;ИУПЭиС;1;8-905-147-39-60;Пр-5;не пришёл;;бюджет;очная;г. Владимир;;2013;4;2017;153;
111;27.08.2013;Кочетова Анастасия Андреевна;ж;ИУПЭиС;1;8-916-955-07-09;Пр-5;не пришёл;;бюджет;очная;МО, г. Протвино;;2013;4;2017;195;
112;27.08.2013;Казаченко Марина Николаевна;ж;ИМ;5;8-926-342-41-05;Пр-5;не пришёл;;бюджет;очная;Ульяновская обл., пос. Красносельск;;2009;5;2014;211;
113;04.09.2013;Полежаева Татьяна Олеговна;ж;ИУПЭиС;1;8-919-760-51-55;Пр-5;не пришёл;;бюджет;дневная;Моск.обл гор.Электросталь;;2013;4;2017;323;
114;04,09,2013;Ершова Ирина Витальевна;ж;ИУПЭиС;1;89164655315;Пр-5;не пришёл;;бюджет;очная;МО, г. Воскресенск;;2013;4;2017;330;
115;05,09,2013;Чулкова Анастасия Витальевна ;ж;ИМ;1;8-916-253-56-36;Пр-5;не пришёл;;бюджет;очная;МО, г. Воскресенск;;2013;4;2017;338;
116;06.09.2013;Евдакимова Т.Н.;м;магистр;1;89151734585;Пр-5;не пришёл;;бюджет;очная;г. Волжский, Волгоградская обл.;;2013;2;2015;349;
117;12.09.2013;Яновнева Анна Михайловна;ж;ИУПСС;;89852794561;Пр-5;не пришёл;;бюджет;;г. Орехово-Зуево;;;;;364;
118;26.08.2013;Равилова Рената Шамилевна;ж;ИУПиЭС;1;8-917-468-90-07;Пр-5;не пришёл;;бюджет;очная;г. Уфа;;2013;4;2017;162;
119;27.08.2013;Рамирес Туманян Сандра Мария;ж;ИИУЭ;1;8-917-541-41-45;Пр-5;не пришёл;;бюджет;очная;МО, г. Дубна;;2013;4;2017;204;
120;29.08.2013;Роголь Игорь Александрович;м;ИУПЭиС;1;8-925-091-29-79;Пр-5;не пришёл;;договор;очная;МО, Раменское;;2013;4;2017;262;есть
121;04,09,2013;Ибрагимова Наргис Рустамовна;ж;ИУПЭиС;1;89680865186;Пр-5;не пришёл;;бюджет;очная;г. Липецк;;2013;4;2017;331;есть
122;26.08.2013;Беленков Илья Николаевич;м;ИГУиП;1;8-985-445-29-79;Пр-5;не пришёл;;договор;очная;Чувашская респ., г. Новочебоксарск;;2013;4;2017;173;
123;27.08.2013;Оксентенко Владислав Андреевич;м;ИИСУ;1;8-982-570-11-68;Пр-5;отказ;;договор;очная;Тюменская обл., г. Нижневартовск;;2013;4;2017;209;
124;29.08.2013;Пономарев Алексей Валерьевич;м;ИМ;1;8-962-103-22-13;Пр-5;не пришёл;;договор;очная;О. Сахалин, г. Холмск;;2013;4;2017;265;
125;30.08.2013;Мовсесян Геворг Ромикович;м;ИГУиП;3;89853553555;Пр-5;не пришёл;;бюджет;;г. Владикавказ;;2011;4;2015;300;
126;04.09.2013;Прошунин Дмитрий Александрович;м;ИИУЭ;1;8-915-824-68-35;Пр-5;не пришёл;;бюджет;очная;г. Кинешма Ивановская область;;2013;4;2017;327;
127;09.09.2013;Чечеткин Станислав Викторович ;м;ИУПЭС;1;89525305554;Пр-5;не пришёл;;договор;очная;г. Сафоново ;;2013;4;2017;352;
128;10.09.2013;Шефер Александр Алесандрович;м;ИУТИТиМБ;1;89162810388;Пр-5;не пришёл;;договор;очная;г. Тобольск;;2013;4;2015;359;
129;11.09.2013;Шкарбан Илья Сергеевич;м;ИГУиП;4;89175527935;Пр-5;не пришёл;;бюджет;очная;г. Рязань;;2010;4;2015;362;
130;05.09.2012;Демидюк Ярослав Николаевич;м;ИГУиП;2;8-915-149-11-13;Пр-5;не пришёл;;договор;очная;г.Электросталь, МО;;2012;4;2016;есть;
131;29.08.2012;Лобанников Дмитрий Валерьевич;м;ИГУиП;2;8-926-377-92-92;Пр-5;не пришёл;развод;договор;очная;МО, г. Сергиев Посад;;2012;4;2016;есть;
132;05.09.2012;Млакин Кирилл Александрович;м;ИГУиП;2;8-963-635-10-78;Пр-5;не пришёл;;договор;очная;г.Ногинск;;2012;4;2016;есть;
133;27.09.2012;Сегебатян Саргис Артинович;м;ИМ;5;8-903-108-11-11;Пр-5;не пришёл;;бюджет;очная;Армения;;2009;5;2014;есть;
134;06.09.2012;Семенков Илья Андреевич;м;ИИУЭ;2;8-915-083-26-58;Пр-5;не пришёл;;договор;очная;г.Электросталь, МО;;2012;4;2016;есть;
135;31.08.2011;Туровская Евгения Алексеевна;ж;ИГУиП;4;;Пр-5;не пришёл;;договор;очная;Воронежская обл.г. Борисоглебск;;2010;5;2015;есть;
136;07.03.2013;Перов Максим Сергеевич;м;ИГУиП;2;8-925-066-17-32;Пр-5;не пришёл;;договор;очная;МО, г.Шатура;;2012;4;2016;есть;
137;27.03.2013;Шишко Денис Сергеевич;м;ИИСУ;2;8-903-131-69-65;Пр-5;не пришёл;многодетная;бюджет;очная;МО, г.Клин;;2012;4;2016;есть;
138;26.02.2013;Войлуков Виктор Дмитриевич;м;ИУПСС;;8-915-427-32-57;Пр-5;не пришёл;;договор;очная;г. Красноярск;;;2010;5;2015;есть
139;04.09.2013;Нестеров Евгений Валерьевич;м;ИУТИТиМБ;1;89165318535;Пр-5;отказ;;договор;очная;МО, г. Краснознаменск;;2013;4;2017;329;
140;05.09.2012;Мельникова Элина Сергеевна;ж;ИГУиП;2;8-968-487-09-43;Пр.-3;не заселилась в установленный срок;;бюджет;очная;г.Воронеж;;2012;4;2016;есть;
141;19.03.2012;Весекина Мария Борисовна ;ж;ИУФиНА;3;8-925-859-57-81;Пр-5;не пришёл;;бюджет;очная;Курская обл дмитровский р-он;;2011;4;2015;;
142;30.08.2012;Гудаковская Юлия Александровна;ж;ИИУЭ;2;8-916-099-91-04;Пр-5;не пришёл;;бюджет;очная;г.Новороссийск;;2012;4;2016;;
143;03.09.2012;Махова Ирина Игоревна;ж;;2;8-926-181-53-58;Пр-5;не пришёл;сирота;бюджет;очная;Московская обл, Балаших. р-н, Пуршево д;;2012;4;2016;;
144;02.09.2011;Молаева Алинат Исмаиловна;ж;ИУФиНА;4;8-926-947-28-88;Пр-5;не пришёл;многодетная, малоимущая;бюджет;очная;КЧР, г.Учкекен;;2010;5;2015;;
145;11.03.2010;Петрова Ольга Владимировна;ж;ИУПЭС;5;;Пр-5;не пришёл;;бюджет;очная;г. Ростов ;;2009;5;2014;;
146;23.11.2010;Тимофеева Анастасия Сергеевна;ж;ИУФиНА;4;;Пр-5;не пришёл;;бюджет;очная;г. Омск;;2010;5;2015;;
147;03.09.2012;Мельников Александр Николаевич;м;РГФМ;2;8-916-812-80-41;Пр-5;не пришёл;;бюджет;очная;г.Коломна МО.;;2012;4;2016;;
148;03.09.2012;Ползунов Николай Юрьевич;м;ИУФиНА;2;8-967-025-82-71;Пр-5;не пришёл;;бюджет;очная;с.Омкуль;;2012;4;2016;есть;
149;05.09.2012;Трибков Иван Андреевич;м;ИУПЭС;2;8-964-696-40-34;Пр-5;не пришёл;;бюджет;очная;г.Муром;;2012;4;2016;;
150;13.03.2013;Матвеев Филипп Андреевич;м;ИУПСС;5;8-916-093-69-05;Пр-5;не пришёл;;бюджет;очная;г. Астрахань;;2009;5;2014;;
151;12.04.2013;Ахмедов Гаджимурад Г.;м;ИГУиП;#ЗНАЧ!;8-909-158-56-05;1;отказ;Отказ по Пр-3;договор;очная;р. Дагестан, г. Махачкала;;2009;5;2014;есть;
152;25.04.2013;Теков Заур Магомедович;м;ИУПЭС;#ЗНАЧ!;8-929-977-37-64;1;отказ;отказ по Пр-3;договор;очная;КЧР, с. Учкекен;;2010;5;2015;есть;
153;31.08.2012;Байков Федор Юрьевич;м;ИИУЭ;3;8-905-535-92-34;Пр.-3;не пришёл;не заселился в общежитие в установленный срок ;бюджет;очная;г.Подольск;;2011;4;2015;есть;
154;07.09.2012;Маричев Евгений Станиславович;м;ИУПЭС;2;8-926-543-64-94;Пр.-3;не пришёл;не заселился в общежитие в установленный срок ;бюджет;очная;г.Фрязино;;2012;4;2016;есть;
155;26.08.2013;Балашова Наталья Евгеньевна;ж;ИУПЭиС;1;8-905-962-09-99;Пр-5;не пришёл;не заселилась в установленный врок;бюджет;очная;г. Рязань;;2013;4;2017;109;
326;02.10.2012;Алмазов Тимур Султанович;м;ИИСУ;2;8-906-779-40-22;Пр-6;не пришёл;;бюджет;очная;респ.Ингушетия;;2012;4;2016;есть;
327;13.09.2012;Аляутдинова Кристина Руслановна;ж;ИУТИТиМБ;2;8-909-659-39-06;Пр-6;не пришёл;;договор;очная;г.Климовск;;2012;4;2016;есть;
328;04.09.2012;Асатрят Давит Тамлетович;м;ИИУЭ;2;8-925-714-95-29;Пр-6;не пришёл;;договор;очная;д.Новково;;2012;4;2016;есть;
329;29.08.2012;Гаджимирзаев Джамалудин Зиябутинович;м;ИИСУ;2;8-928-985-87-03;Пр-6;не пришёл ;многодетная;бюджет;очная;г.Махачкала;;2012;4;2016;есть;
330;29.08.2012;Галишевская Елена Владимировна;ж;ИУТИТиМБ;2;8-916-509-18-24;Пр-6;не пришёл;;договор;очная;г.Норильск;;2012;4;2016;есть;
332;29.08.2012;Даутаев Ислам Якубович;м;ИМ;2;8-926-160-62-52;Пр-6;не пришёл;малоимущая;бюджет;очная;Ингушетия, с.Яндаре;;2012;4;2016;есть;
333;13.09.2012;Дяченко Анна Васильевна;ж;ИУТИТиМБ;2;8-916-639-57-04;Пр-6;не пришёл;;договор;очная;г.Архангельск;;2012;4;2016;есть;
334;21.09.2012;Есева Ольга Владимировна;ж;ИГУиП;3;8-926-735-90-11;Пр-6;не пришёл;;договор;очная;г.Якутск;;2011;4;2015;есть;
335;30.08.2012;Знатнова Наталья Алексеевна;ж;ИУПСС;2;8-903-813-43-05;Пр-6;не пришёл;;договор;очная;г.Малоярославец;;2012;4;2016;есть;
336;04.09.2012;Исмиляев Рамиль Русланович;м;ИУПЭС;3;8-985-640-62-92;Пр-6;не пришёл ;;договор;очная;г.Ливна;;2011;4;2015;есть;
337;15.09.2011;Калаханов Бинегер Хасанович;м;ИГУиП;4;8-925-881-84-99;Пр-6;не пришёл;;договор;очная;г. Карачаевск, Карачаево-Черкесская Респ.;;2010;5;2015;есть;
339;29.08.2012;Кологривых Юлия Сергеевна;ж;ИУТИТиМБ;2;8-905-158-82-72;Пр-6;не пришёл;;договор;очная;г.Железногорск;;2012;4;2016;есть;
340;29.08.2011;Курбанов Омар Ахмедгаднешевич;м;ИГУиП;3;8-903-210-50-60;Пр-6;не пришёл в установленный срок;;договор;очная;республика Дагестан, с.Дуаг-Ар;;2011;4;2015;есть;
341;05.09.2012;Литвинцева Екатерина Николаевна;ж;ИУПЭС;2;8-916-297-37-92;Пр-6;не пришёл;;договор;очная;г.Белгород;;2012;4;2016;есть;
342;03.09.2012;Лобанова Мария Александровна;ж;ИУФиНА;2;8-905-582-45-76;Пр-6;не пришёл;;договор;очная;пгт.Редкино;;2012;4;2016;есть;
343;30.08.2012;Макарова Мария Игоревна;ж;ИУПСС;2;8-925-055-00-90;Пр-6;не пришёл ;;договор;очная;г.Чехов;;2012;4;2016;есть;
344;30.08.2012;Мальсагов Сайт-Ахмед Ахмедович;м;ИУПЭС;2;8-926-888-32-17;Пр-6;не пришёл;малоимущая;бюджет;очная;г.Назрань;;2012;4;2016;есть;
345;11.10.2012;Малясова Анастасия Романовна;ж;ИУТИТиМБ;2;8-915-795-70-60;Пр-6;не пришёл;;договор;очная;г.Владимир;;2012;4;2016;есть;
347;28.08.2010;Нурмагомедов Хайбула Хизриевич;м;ИИСУ;4;;Пр-6;не пришёл;;бюджет;очная;Дагестан Респ, Махачкала г;;2010;5;2015;есть;
348;04.09.2012;Оганесян Тарон Карепетович;м;ИИУЭ;2;8-925-340-08-90;Пр-6;не пришёл;;договор;очная;Ростовская область;;2012;4;2016;есть;
349;29.08.2012;Пинкина Александра Анатольевна;ж;ИУПЭС;2;8-915-434-45-05;Пр-6;не пришёл;;договор;очная;МО, Ивантеевка;;2012;4;2016;есть;
350;31.08.2012;Серебрякова Ольга Юрьевна;ж;ИУФиНА;2;8-910-472-22-39;Пр-6;не пришёл ;;договор;очная;г.Усинск, Коми;;2012;4;2016;есть;
351;07.09.2012;Симоненкова Дарья сергеевна;ж;ИУФиНА;2;8-962-171-31-03;Пр-6;не пришёл;;договор;очная;г.Балабанова;;2012;4;2016;есть;
353;06.09.2012;Филимонова Анна Евгеньевна;ж;ИИУЭ;2;8-985-105-75-83;Пр-6;не пришёл;;договор;очная;г.Ставрополь;;2012;4;2016;есть;
354;29.08.2011;Цицкиев Алихап Михайлович;м;ИИУЭ;4;8-926-943-12-69;Пр-6;не пришёл;;бюджет;очная;республика Ингушеия, ст.Троицкая;;2010;5;2015;есть;
357;29.08.2012;Шеянова Алена Игоревна;ж;ИУПСС;2;8-926-497-59-57;Пр-6;не пришёл;;договор;очная;г.Набережные Челны;;2012;4;2016;есть;
358;06.09.2012;Ясулов Шамиль Магомедович;м;ИИУЭ;4;8-926-262-32-40;Пр-6;не пришёл;отличник;бюджет;очная;Дагестан;;2010;5;2015;есть;
359;12.02.2013;Полищук Анна Сергеевна;ж;ИГУиП;2;8-916-278-62-68;Пр-6;не пришёл ;;договор;очная;МО, г. Протвино;;2012;4;2016;есть;
360;26.02.2013;Березнева Элла Сергеевна;ж;ИУФиНА;2;8-919-733-05-86;Пр-6;не пришёл;;договор;очная;г. Железноводск;;2012;4;2016;есть;
361;02.04.2013;Ибрагимов Шамиль Ибрагим оглы;м;ИИУЭ;2;8-968-711-3882;Пр-6;не пришёл;;договор;очная;г. Переславль-Залесский;;2012;4;2016;есть;
362;15.04.2013;Шапорова Алена Владимировна;ж;ИУТИТиМБ;2;8-915-112-68-43;Пр-6;не пришёл;;договор;очная;г. Зарайск;;2012;4;2016;есть;
363;02.09.2011;Гекос Зосур Магомедович;м;ИУПЭС;;8-929-977-37-64;Пр-6;не пришёл;нет заявления;договор;очная;КЧР, с.Учкекен;;2010;5;2015;;
364;31.08.2011;Гоничев Леонид Александрович;м;ИИУЭ;;;Пр-6;не пришёл;нет заявления;бюджет;очная;г.Киров;;Год окончания;4;#ЗНАЧ!;;
365;31.08.2012;Лирин Сергей Анатольевич;м;ИУПСС;;8-922-401-66-50;Пр-6;не пришёл ;нет заявления;договор;очная;г.Урай;;Дата подачи;4;#ЗНАЧ!;;
366;30.08.2012;Массова Александра Олеговна;ж;ИУПСС;;8-925-309-32-21;Пр-6;не пришёл;нет заявления;договор;очная;г.Пенза;;Дата подачи;4;#ЗНАЧ!;;
367;12.03.2012;Подъяпольская Анна Андреевна;ж;ИУТИТиМБ;;8-919-772-57-29;Пр-6;не пришёл;нет заявления;договор;очная;г.Владимир;;2010;5;2015;;
368;29.08.2012;Селянов Владислав Васильевич;м;ИМ, РГФМ;;8-951-144-98-90;Пр-6;не пришёл;нет заявления;договор;очная;г.Старый Оскол;;Дата подачи;4;#ЗНАЧ!;;
369;13.09.2011;Черноусов Максим Вячеславович;м;ИУПЭС;;8-915-213-67-53;Пр-6;не пришёл;нет заявления;договор;очная;Ярославская обл., г. Переславль-Залесский;;2010;5;2015;;
370;30.08.2011;Чочиев Заур Геннадьевич;м;ИГУиП;;8-906-746-61-57;Пр-6;не пришёл;нет заявления;бюджет;очная;г.Владикавказ;;Год окончания;4;#ЗНАЧ!;;
372;26.08.2013;Кужбаева Асель Саменовна;ж;ИУТИТиМБ;1;8-925-201-61-13;Пр-6;не пришёл ;;договор;очная;Волгоградская обл., г. Палласовка;;2013;4;2017;101;есть
374;26.08.2013;Лабурева Юлия Игоревна;ж;ИУТИТиМБ;1;8-922-553-16-58;Пр-6;не пришёл;;договор;очная;Оренбургская обл., г. Орск;;2013;4;2017;117;есть
377;26.08.2013;Маслова Ольга Эдуардовна;ж;ИУТИТиМБ;1;8-902-692-56-94;Пр-6;не пришёл;;договор;очная;Ханты-Мансийский авт. округ, г. Мегион;;2013;4;2017;161;есть
382;27.08.2013;Тен Ангелина Гировна;ж;ИУТИТиМБ;1;8-916-851-75-78;Пр-6;не пришёл;;договор;очная;Приморский край, Кировский р-н, пос. Горные Ключи;;2013;4;2017;207;есть
383;28.08.2013;Очур-оол Ольга Алексеевна;ж;ИУТИТиМБ;1;8-923-383-59-85;Пр-6;не пришёл;;договор;очная;респ. Тыва, г. Кызыл;;2013;4;2017;219;есть
384;28.08.2013;Абелян Эдгар Размикович ;м;ИУПСС;1;8-925-004-85-00;Пр-6;не пришёл;;договор;очная;МО, п. Брикет;;2013;4;2017;238;есть
390;02.09.2013;Сайкина Анастасия Викторовна;ж;ИИУЭ;1;8-927-171-42-30;Пр-6;не пришёл ;;договор;очная;Мордовия, п. Явас;;2013;4;2017;311;есть
391;04.09.2013;Медведева Дарья Сергеевна;ж;ИМ;2;8-915-062-53-25;Пр-6;не пришёл;;договор;очная;г. Северодвинск;;2012;4;2016;324;есть
392;05,09,2013;Гагиев Михаил Маратович;м;ИГУиП;2;8-985-221-35-55;Пр-6;не пришёл;;договор;очная;г. Владикавказ;;2012;4;2016;339;есть
393;06.09.2013;Шабалин Алексей Сергеевич;м;ИУТИТиМБ;4;;Пр-6;не пришёл;;договор;очная;МО, г. Бронницы;;;;;345;есть
394;09.09.2013;Дубровская  Екатрина Константиновна ;ж;ИУТИТиМБ;2;89166077111;Пр-6;не пришёл;;договор;;г. Уфа;;;;;358;есть
395;12.09.2013;Мусаев Арсен Алибегович;м;ИГУиП;;89882228120;Пр-6;не пришёл;;договор;;г. Махачкала;;;;;363;есть
396;13.09.2013;Дуденкова Яна Вячеславовна ;ж;ИУФиНА;2;8-927-177-27-04;Пр-6;не пришёл ;;договор;очная;Респ. Мордовия, г. Инсар;;2012;4;2016;378;есть